Hotel bookings - data wrangling
…
Exercise 2.

Are people traveling on a whim? Let’s see…

Fill in the blanks for filtering for hotel bookings where the guest is not from the US (country code "USA") and the lead_time is less than 1 day.

Note: You will need to set eval=TRUE when you have an answer you want to try out.

hotels %>%
  filter(
    country != "USA", 
    lead_time < 1
    )

# A tibble: 6,174 × 32
   hotel        is_canceled lead_time arrival_date_year arrival_date_month
   <chr>              <dbl>     <dbl>             <dbl> <chr>             
 1 Resort Hotel           0         0              2015 July              
 2 Resort Hotel           0         0              2015 July              
 3 Resort Hotel           0         0              2015 July              
 4 Resort Hotel           0         0              2015 July              
 5 Resort Hotel           0         0              2015 July              
 6 Resort Hotel           0         0              2015 July              
 7 Resort Hotel           0         0              2015 July              
 8 Resort Hotel           0         0              2015 July              
 9 Resort Hotel           0         0              2015 July              
10 Resort Hotel           0         0              2015 July              
# ℹ 6,164 more rows
# ℹ 27 more variables: arrival_date_week_number <dbl>,
#   arrival_date_day_of_month <dbl>, stays_in_weekend_nights <dbl>,
#   stays_in_week_nights <dbl>, adults <dbl>, children <dbl>, babies <dbl>,
#   meal <chr>, country <chr>, market_segment <chr>,
#   distribution_channel <chr>, is_repeated_guest <dbl>,
#   previous_cancellations <dbl>, previous_bookings_not_canceled <dbl>, …
…
In the following chunk, replace

[AT LEAST] with the logical operator for “at least” (in two places)

[OR] with the logical operator for “or”

Note: You will need to set eval=TRUE when you have an answer you want to try out.

hotels %>%
  filter(
    children >= 1 | babies >= 1
    )

# A tibble: 9,332 × 32
   hotel        is_canceled lead_time arrival_date_year arrival_date_month
   <chr>              <dbl>     <dbl>             <dbl> <chr>             
 1 Resort Hotel           0        18              2015 July              
 2 Resort Hotel           1        47              2015 July              
 3 Resort Hotel           0         1              2015 July              
 4 Resort Hotel           0        10              2015 July              
 5 Resort Hotel           1        79              2015 July              
 6 Resort Hotel           0       101              2015 July              
 7 Resort Hotel           0        92              2015 July              
 8 Resort Hotel           1        26              2015 July              
 9 Resort Hotel           0       102              2015 July              
10 Resort Hotel           0        78              2015 July              
# ℹ 9,322 more rows
# ℹ 27 more variables: arrival_date_week_number <dbl>,
#   arrival_date_day_of_month <dbl>, stays_in_weekend_nights <dbl>,
#   stays_in_week_nights <dbl>, adults <dbl>, children <dbl>, babies <dbl>,
#   meal <chr>, country <chr>, market_segment <chr>,
#   distribution_channel <chr>, is_repeated_guest <dbl>,
#   previous_cancellations <dbl>, previous_bookings_not_canceled <dbl>, …

Exercise 4.

Do you think it’s more likely to find bookings with children or babies in city hotels or resort hotels? Test your intuition. Using filter() determine the number of bookings in resort hotels that have more than 1 child or baby in the room? Then, do the same for city hotels, and compare the numbers of rows in the resulting filtered data frames.

hotels %>%
  filter(hotel == "Resort Hotel" & (children >= 1 | babies >= 1)
  )

# A tibble: 3,929 × 32
   hotel        is_canceled lead_time arrival_date_year arrival_date_month
   <chr>              <dbl>     <dbl>             <dbl> <chr>             
 1 Resort Hotel           0        18              2015 July              
 2 Resort Hotel           1        47              2015 July              
 3 Resort Hotel           0         1              2015 July              
 4 Resort Hotel           0        10              2015 July              
 5 Resort Hotel           1        79              2015 July              
 6 Resort Hotel           0       101              2015 July              
 7 Resort Hotel           0        92              2015 July              
 8 Resort Hotel           1        26              2015 July              
 9 Resort Hotel           0       102              2015 July              
10 Resort Hotel           0        78              2015 July              
# ℹ 3,919 more rows
# ℹ 27 more variables: arrival_date_week_number <dbl>,
#   arrival_date_day_of_month <dbl>, stays_in_weekend_nights <dbl>,
#   stays_in_week_nights <dbl>, adults <dbl>, children <dbl>, babies <dbl>,
#   meal <chr>, country <chr>, market_segment <chr>,
#   distribution_channel <chr>, is_repeated_guest <dbl>,
#   previous_cancellations <dbl>, previous_bookings_not_canceled <dbl>, …

hotels %>%
  filter(hotel == "Resort Hotel") %>%
  filter(children >= 1 | babies >= 1
  )

# A tibble: 3,929 × 32
   hotel        is_canceled lead_time arrival_date_year arrival_date_month
   <chr>              <dbl>     <dbl>             <dbl> <chr>             
 1 Resort Hotel           0        18              2015 July              
 2 Resort Hotel           1        47              2015 July              
 3 Resort Hotel           0         1              2015 July              
 4 Resort Hotel           0        10              2015 July              
 5 Resort Hotel           1        79              2015 July              
 6 Resort Hotel           0       101              2015 July              
 7 Resort Hotel           0        92              2015 July              
 8 Resort Hotel           1        26              2015 July              
 9 Resort Hotel           0       102              2015 July              
10 Resort Hotel           0        78              2015 July              
# ℹ 3,919 more rows
# ℹ 27 more variables: arrival_date_week_number <dbl>,
#   arrival_date_day_of_month <dbl>, stays_in_weekend_nights <dbl>,
#   stays_in_week_nights <dbl>, adults <dbl>, children <dbl>, babies <dbl>,
#   meal <chr>, country <chr>, market_segment <chr>,
#   distribution_channel <chr>, is_repeated_guest <dbl>,
#   previous_cancellations <dbl>, previous_bookings_not_canceled <dbl>, …

  # unique(hotels$hotel)

hotels %>%
  filter(hotel == "City Hotel" & (children >= 1 | babies >= 1)
  )

# A tibble: 5,403 × 32
   hotel      is_canceled lead_time arrival_date_year arrival_date_month
   <chr>            <dbl>     <dbl>             <dbl> <chr>             
 1 City Hotel           1       100              2015 July              
 2 City Hotel           0        69              2015 July              
 3 City Hotel           0        67              2015 July              
 4 City Hotel           1        60              2015 July              
 5 City Hotel           0         0              2015 July              
 6 City Hotel           0         0              2015 July              
 7 City Hotel           0         0              2015 July              
 8 City Hotel           0        84              2015 July              
 9 City Hotel           0        74              2015 July              
10 City Hotel           0        75              2015 July              
# ℹ 5,393 more rows
# ℹ 27 more variables: arrival_date_week_number <dbl>,
#   arrival_date_day_of_month <dbl>, stays_in_weekend_nights <dbl>,
#   stays_in_week_nights <dbl>, adults <dbl>, children <dbl>, babies <dbl>,
#   meal <chr>, country <chr>, market_segment <chr>,
#   distribution_channel <chr>, is_repeated_guest <dbl>,
#   previous_cancellations <dbl>, previous_bookings_not_canceled <dbl>, …

Exercise 5.

Create a frequency table of the number of adults in a booking. Display the results in descending order so the most common observation is on top. What is the most common number of adults in bookings in this dataset? Are there any surprising results?

Note: Don’t forget to label your R chunk as well (where it says label-me-1). Your label should be short, informative, and shouldn’t include spaces. It also shouldn’t repeat a previous label, otherwise R Markdown will give you an error about repeated R chunk labels.

hotels %>%
  select(hotel, adults) %>%
  arrange(desc(adults))

# A tibble: 119,390 × 2
   hotel        adults
   <chr>         <dbl>
 1 Resort Hotel     55
 2 Resort Hotel     50
 3 Resort Hotel     40
 4 Resort Hotel     27
 5 Resort Hotel     27
 6 Resort Hotel     26
 7 Resort Hotel     26
 8 Resort Hotel     26
 9 Resort Hotel     26
10 Resort Hotel     26
# ℹ 119,380 more rows

Exercise 6.

Repeat Exercise 5, once for canceled bookings (is_canceled coded as 1) and once for not canceled bookings (is_canceled coded as 0). What does this reveal about the surprising results you spotted in the previous exercise?

Note: Don’t forget to label your R chunk as well (where it says label-me-2).

  hotels %>%
  filter(is_canceled == 0) %>%
  select(hotel, adults) %>%
  arrange(desc(adults))

# A tibble: 75,166 × 2
   hotel        adults
   <chr>         <dbl>
 1 Resort Hotel      4
 2 Resort Hotel      4
 3 Resort Hotel      4
 4 Resort Hotel      4
 5 Resort Hotel      4
 6 Resort Hotel      4
 7 Resort Hotel      4
 8 Resort Hotel      4
 9 Resort Hotel      4
10 Resort Hotel      4
# ℹ 75,156 more rows

# add code here
# pay attention to correctness and code style

hotels %>%
  filter(is_canceled == 1) %>%
  select(hotel, adults) %>%
  arrange(desc(adults))

# A tibble: 44,224 × 2
   hotel        adults
   <chr>         <dbl>
 1 Resort Hotel     55
 2 Resort Hotel     50
 3 Resort Hotel     40
 4 Resort Hotel     27
 5 Resort Hotel     27
 6 Resort Hotel     26
 7 Resort Hotel     26
 8 Resort Hotel     26
 9 Resort Hotel     26
10 Resort Hotel     26
# ℹ 44,214 more rows
…
